<svg width="11" height="10" viewBox="0 0 11 10" version="1.1" xmlns="http://www.w3.org/2000/svg" xmlns:xlink="http://www.w3.org/1999/xlink">
<g id="Canvas" fill="none">
<g id="Vector">
<path d="M 10.3817 4.05587L 10.3988 4.05998L 3.03815 4.05998L 5.35208 1.52178C 5.46539 1.39786 5.52754 1.23 5.52754 1.05381C 5.52754 0.877617 5.46539 0.710923 5.35208 0.58671L 4.99203 0.192438C 4.87881 0.0685179 4.72794 -5.22751e-09 4.56706 -5.22751e-09C 4.40608 -5.22751e-09 4.25512 0.0680286 4.1419 0.191948L 0.175376 4.53295C 0.0617097 4.65736 -0.000444758 4.82308 2.39597e-06 4.99936C -0.000444758 5.17663 0.0617097 5.34244 0.175376 5.46666L 4.1419 9.80805C 4.25512 9.93187 4.40599 10 4.56706 10C 4.72794 10 4.87881 9.93178 4.99203 9.80805L 5.35208 9.41378C 5.46539 9.29006 5.52754 9.12483 5.52754 8.94864C 5.52754 8.77255 5.46539 8.61604 5.35208 8.49221L 3.01203 5.93982L 10.3899 5.93982C 10.7214 5.93982 11 5.62709 11 5.26443L 11 4.70679C 11 4.34414 10.7132 4.05587 10.3817 4.05587Z" transform="matrix(-1 -8.74428e-08 -8.74028e-08 1 11 0)" fill="#EF7B0F"/>
</g>
</g>
</svg>
