<svg width="17" height="15" viewBox="0 0 17 15" fill="none" xmlns="http://www.w3.org/2000/svg">
<path d="M1.37815 5.96994L1.35313 5.97583H12.1835L8.78134 2.24155C8.6122 2.05232 8.51983 1.80675 8.52235 1.55296C8.51992 1.29964 8.61229 1.05455 8.78134 0.865846L9.31108 0.284665C9.38947 0.196481 9.48552 0.12576 9.59301 0.0770924C9.7005 0.0284247 9.81702 0.00289736 9.93501 0.00216675C10.1705 0.00216675 10.3941 0.102218 10.5604 0.284665L16.3979 6.6703C16.5642 6.85422 16.6554 7.09846 16.6554 7.35742C16.6593 7.61118 16.5674 7.85708 16.3979 8.04601L10.5604 14.4331C10.4819 14.5215 10.3856 14.5923 10.2778 14.641C10.1701 14.6897 10.0532 14.7151 9.93501 14.7156C9.81677 14.7151 9.69997 14.6897 9.59221 14.641C9.48445 14.5923 9.38816 14.5215 9.30961 14.4331L8.77987 13.8534C8.61089 13.6658 8.51847 13.4217 8.52088 13.1692C8.52088 12.9103 8.61359 12.6793 8.77987 12.4968L12.2232 8.74195H1.36637C0.880774 8.74195 0.46875 8.28142 0.46875 7.74732V6.92779C0.46875 6.39369 0.891075 5.96994 1.37815 5.96994Z" fill="white"/>
</svg>
